{
  "block.wood.creak": {
    "category": "block",
    "sounds": [
      "betterwithmods:wood/wood_creak"
    ],
    "subtitle": "subtitles.bwm.wood.creak"
  },
  "block.stone.grind": {
    "category": "block",
    "sounds": [
      "betterwithmods:stone/stone_grind"
    ],
    "subtitle": "subtitles.bwm.stone.grind"
  },
  "block.wood.bellow": {
    "category": "block",
    "sounds": [
      "betterwithmods:wood/bellow"
    ],
    "subtitle": "subtitles.bwm.wood.bellow"
  },
  "block.wood.chime": {
    "category": "block",
    "sounds": [
      "betterwithmods:wood/bamboo_chime_0",
      "betterwithmods:wood/bamboo_chime_1",
      "betterwithmods:wood/bamboo_chime_2",
      "betterwithmods:wood/bamboo_chime_3"
    ],
    "subtitle": "subtitles.bwm.wood.chime"
  },
  "block.metal.chime": {
    "category": "block",
    "sounds": [
      "betterwithmods:metal/metal_chime_0",
      "betterwithmods:metal/metal_chime_1",
      "betterwithmods:metal/metal_chime_2"
    ],
    "subtitle": "subtitles.bwm.metal.chime"
  },
  "block.metal.hacksaw": {
    "category": "block",
    "sounds": [
      "betterwithmods:metal/hacksaw"
    ],
    "subtitle": "subtitles.bwm.metal.hacksaw"
  },
  "entity.player.oof": {
    "category": "player",
    "sounds": [
      "betterwithmods:player/oof"
    ],
    "subtitle": "subtitles.bwm.oof"
  },
  "block.millstone.netherrack":{
    "category": "block",
    "sounds": [
      "mob/ghast/scream1",
      "mob/ghast/scream2",
      "mob/ghast/scream3",
      "mob/ghast/scream4",
      "mob/ghast/scream5"
    ],
    "subtitle": "subtitles.bwm.millstone.netherrack"
  },
  "block.saw.cut": {
    "category": "block",
    "sounds": [
      "minecart/base"
    ],
    "subtitle": "subtitle.bwm.saw.cut"
  },
  "block.mechanical.overpower": {
    "category": "block",
    "sounds": [
      "mob/zombie/wood1",
      "mob/zombie/wood2",
      "mob/zombie/wood3",
      "mob/zombie/wood4"
    ],
    "subtitle": "subtitle.bwm.mechanical.overpower"
  },
  "block.bloodwood.break": {
    "category": "block",
    "sounds": [
      "mob/ghast/scream1",
      "mob/ghast/scream2",
      "mob/ghast/scream3",
      "mob/ghast/scream4",
      "mob/ghast/scream5"
    ],
    "subtitle": "subtitles.bwm.bloodwood.break"
  }
}